<?xml version="1.0" encoding="utf-8"?>
<!-- Generator: Adobe Illustrator 16.0.0, SVG Export Plug-In . SVG Version: 6.00 Build 0)  -->
<!DOCTYPE svg PUBLIC "-//W3C//DTD SVG 1.1//EN" "http://www.w3.org/Graphics/SVG/1.1/DTD/svg11.dtd">
<svg version="1.1" id="Layer_1" xmlns="http://www.w3.org/2000/svg" xmlns:xlink="http://www.w3.org/1999/xlink" x="0px" y="0px"
	 width="2000px" height="1125px" viewBox="0 0 2000 1125" enable-background="new 0 0 2000 1125" xml:space="preserve">
<rect y="437.5" display="none" fill="#FFC933" width="2000" height="1125"/>
<polygon fill="#D28F53" points="1196.25,1000 673.75,1562.5 1745,1562.5 "/>
<polygon fill="#F99723" points="1196.25,1000 1091.125,1562.5 1745,1562.5 "/>
<polygon fill="#BC7B36" points="-75,1562.5 497.5,1265 1020,1562.5 "/>
<polygon fill="#F99723" points="421.25,1562.5 497.5,1265 1020,1562.5 "/>
<polygon fill="#BE7F2D" points="1503.75,1120 1940,1562.5 1095,1562.5 "/>
<polygon fill="#987336" points="1503.75,1120 1940,1562.5 1452.5,1562.5 "/>
<polygon fill="#AF7A26" points="801.25,1306.25 1107.5,1562.5 458.75,1562.5 "/>
<polygon fill="#8A5724" points="733.75,1562.5 801.25,1306.25 1107.5,1562.5 "/>
<polygon fill="#AB8438" points="2137.5,1562.5 1751.25,1227.5 1370,1562.5 "/>
<polygon fill="#713411" points="2137.5,1562.5 1751.25,1227.5 1706.25,1562.5 "/>
<polygon fill="#B5923A" points="1512.5,1562.5 1213.75,1296.25 906.25,1562.5 "/>
<polygon fill="#862313" points="1178.75,1562.5 1512.5,1562.5 1213.75,1296.25 "/>
</svg>
